{
    "page": 1,
    "total_results": 19832,
    "total_pages": 992,
    "results": [{
        "vote_count": 2182,
        "id": 297802,
        "video": false,
        "vote_average": 6.9,
        "title": "Aquaman",
        "popularity": 513.81,
        "poster_path": "\/5Kg76ldv7VxeX9YlcQXiowHgdX6.jpg",
        "original_language": "en",
        "original_title": "Aquaman",
        "genre_ids": [28, 14, 878, 12],
        "backdrop_path": "\/yCiIZ2dLUODlhdKYRaesRDjCyfu.jpg",
        "adult": false,
        "overview": "Arthur Curry learns that he is the heir to the underwater kingdom of Atlantis, and must step forward to lead his people and be a hero to the world.",
        "release_date": "2018-12-07"
    }, {
        "vote_count": 641,
        "id": 424783,
        "video": false,
        "vote_average": 6.5,
        "title": "Bumblebee",
        "popularity": 332.176,
        "poster_path": "\/fw02ONlDhrYjTSZV8XO6hhU3ds3.jpg",
        "original_language": "en",
        "original_title": "Bumblebee",
        "genre_ids": [28, 12, 878],
        "backdrop_path": "\/8bZ7guF94ZyCzi7MLHzXz6E5Lv8.jpg",
        "adult": false,
        "overview": "On the run in the year 1987, Bumblebee finds refuge in a junkyard in a small Californian beach town. Charlie, on the cusp of turning 18 and trying to find her place in the world, discovers Bumblebee, battle-scarred and broken.  When Charlie revives him, she quickly learns this is no ordinary yellow VW bug.",
        "release_date": "2018-12-15"
    }, {
        "vote_count": 536,
        "id": 400650,
        "video": false,
        "vote_average": 6.8,
        "title": "Mary Poppins Returns",
        "popularity": 202.796,
        "poster_path": "\/uTVGku4LibMGyKgQvjBtv3OYfAX.jpg",
        "original_language": "en",
        "original_title": "Mary Poppins Returns",
        "genre_ids": [14, 10402, 10751, 35],
        "backdrop_path": "\/cwiJQXezWz876K3jS57Sq56RYCZ.jpg",
        "adult": false,
        "overview": "In Depression-era London, a now-grown Jane and Michael Banks, along with Michael's three children, are visited by the enigmatic Mary Poppins following a personal loss. Through her unique magical skills, and with the aid of her friend Jack, she helps the family rediscover the joy and wonder missing in their lives.",
        "release_date": "2018-12-19"
    }, {
        "vote_count": 2561,
        "id": 405774,
        "video": false,
        "vote_average": 7.2,
        "title": "Bird Box",
        "popularity": 184.5,
        "poster_path": "\/rGfGfgL2pEPCfhIvqHXieXFn7gp.jpg",
        "original_language": "en",
        "original_title": "Bird Box",
        "genre_ids": [53, 18, 878, 27],
        "backdrop_path": "\/z6m7s4w4Erxnr5k2jc1TZR1AMva.jpg",
        "adult": false,
        "overview": "When a mysterious force decimates the world’s population, only one thing is certain: if you see it, you take your life. Facing the unknown, Malorie finds love, hope and a new beginning only for it to unravel. Now she must flee with her two children down a treacherous river to the one place left that may offer sanctuary. But to survive, they'll have to undertake the perilous two-day journey blindfolded.",
        "release_date": "2018-12-13"
    }, {
        "vote_count": 111,
        "id": 504172,
        "video": false,
        "vote_average": 6.1,
        "title": "The Mule",
        "popularity": 183.317,
        "poster_path": "\/t0idiLMalKMj2pLsvqHrOM4LPdQ.jpg",
        "original_language": "en",
        "original_title": "The Mule",
        "genre_ids": [80, 18, 53],
        "backdrop_path": "\/bkc4AY6FTa3yNqrshE9b1elDzPt.jpg",
        "adult": false,
        "overview": "A 90-year-old horticulturalist and Korean War veteran is caught transporting $3 million worth of cocaine through Illinois for a Mexican drug cartel.",
        "release_date": "2018-12-14"
    }, {
        "vote_count": 904,
        "id": 324857,
        "video": false,
        "vote_average": 8.5,
        "title": "Spider-Man: Into the Spider-Verse",
        "popularity": 167.681,
        "poster_path": "\/laMM4lpQSh5z6KIBPwWogkjzBVQ.jpg",
        "original_language": "en",
        "original_title": "Spider-Man: Into the Spider-Verse",
        "genre_ids": [28, 12, 16, 878, 35],
        "backdrop_path": "\/uUiId6cG32JSRI6RyBQSvQtLjz2.jpg",
        "adult": false,
        "overview": "Miles Morales is juggling his life between being a high school student and being Spider-Man. However, when Wilson \"Kingpin\" Fisk uses a super collider, another Spider-Man from another dimension, Peter Parker, accidentally winds up in Miles' dimension. As Peter trains Miles to become a better Spider-Man, they are soon joined by four other Spider-Men from across the \"Spider-Verse\". As all these clashing dimensions start to tear Brooklyn apart, Miles must help the others stop Fisk and return everyone to their own dimensions.",
        "release_date": "2018-12-07"
    }, {
        "vote_count": 4139,
        "id": 335983,
        "video": false,
        "vote_average": 6.5,
        "title": "Venom",
        "popularity": 154.742,
        "poster_path": "\/2uNW4WbgBXL25BAbXGLnLqX71Sw.jpg",
        "original_language": "en",
        "original_title": "Venom",
        "genre_ids": [878],
        "backdrop_path": "\/VuukZLgaCrho2Ar8Scl9HtV3yD.jpg",
        "adult": false,
        "overview": "Investigative journalist Eddie Brock attempts a comeback following a scandal, but accidentally becomes the host of Venom, a violent, super powerful alien symbiote. Soon, he must rely on his newfound powers to protect the world from a shadowy organization looking for a symbiote of their own.",
        "release_date": "2018-09-28"
    }, {
        "vote_count": 473,
        "id": 480530,
        "video": false,
        "vote_average": 6.4,
        "title": "Creed II",
        "popularity": 149.677,
        "poster_path": "\/v3QyboWRoA4O9RbcsqH8tJMe8EB.jpg",
        "original_language": "en",
        "original_title": "Creed II",
        "genre_ids": [18, 28],
        "backdrop_path": "\/8yqLPNwNCtpOPc3XkOlkSMnghzw.jpg",
        "adult": false,
        "overview": "Follows Adonis Creed's life inside and outside of the ring as he deals with new found fame, issues with his family, and his continuing quest to become a champion.",
        "release_date": "2018-11-20"
    }, {
        "vote_count": 134,
        "id": 429197,
        "video": false,
        "vote_average": 7.1,
        "title": "Vice",
        "popularity": 141.033,
        "poster_path": "\/e0NZxqQ4B8YZ6kRrZish2DPqtdi.jpg",
        "original_language": "en",
        "original_title": "Vice",
        "genre_ids": [18, 36, 35],
        "backdrop_path": "\/uvy89JLcYEiUb0VOoSjkUrIW3nJ.jpg",
        "adult": false,
        "overview": "George W. Bush picks Dick Cheney, the CEO of Halliburton Co., to be his Republican running mate in the 2000 presidential election. No stranger to politics, Cheney's impressive résumé includes stints as White House chief of staff, House Minority Whip and defense secretary. When Bush wins by a narrow margin, Cheney begins to use his newfound power to help reshape the country and the world.",
        "release_date": "2018-12-25"
    }, {
        "vote_count": 2823,
        "id": 338952,
        "video": false,
        "vote_average": 6.9,
        "title": "Fantastic Beasts: The Crimes of Grindelwald",
        "popularity": 134.566,
        "poster_path": "\/kQKcbJ9uYkTQql2R8L4jTUz7l90.jpg",
        "original_language": "en",
        "original_title": "Fantastic Beasts: The Crimes of Grindelwald",
        "genre_ids": [10751, 14, 12],
        "backdrop_path": "\/wDN3FIcQQ1HI7mz1OOKYHSQtaiE.jpg",
        "adult": false,
        "overview": "Gellert Grindelwald has escaped imprisonment and has begun gathering followers to his cause—elevating wizards above all non-magical beings. The only one capable of putting a stop to him is the wizard he once called his closest friend, Albus Dumbledore. However, Dumbledore will need to seek help from the wizard who had thwarted Grindelwald once before, his former student Newt Scamander, who agrees to help, unaware of the dangers that lie ahead. Lines are drawn as love and loyalty are tested, even among the truest friends and family, in an increasingly divided wizarding world.",
        "release_date": "2018-11-14"
    }, {
        "vote_count": 692,
        "id": 404368,
        "video": false,
        "vote_average": 7.5,
        "title": "Ralph Breaks the Internet",
        "popularity": 116.1,
        "poster_path": "\/lvfIaThG5HA8THf76nghKinjjji.jpg",
        "original_language": "en",
        "original_title": "Ralph Breaks the Internet",
        "genre_ids": [10751, 16, 35, 14],
        "backdrop_path": "\/88poTBTafMXaz73vYi3c74g0y2k.jpg",
        "adult": false,
        "overview": "Six years after the events of \"Wreck-It Ralph,\" Ralph and Vanellope, now friends, discover a wi-fi router in their arcade, leading them into a new adventure.",
        "release_date": "2018-11-20"
    }, {
        "vote_count": 112,
        "id": 503314,
        "video": false,
        "vote_average": 7.3,
        "title": "Dragon Ball Super: Broly",
        "popularity": 115.989,
        "poster_path": "\/518jdIQHCZmYqIcNCaqbZuDRheV.jpg",
        "original_language": "ja",
        "original_title": "ドラゴンボール超スーパー ブロリー",
        "genre_ids": [28, 16, 878],
        "backdrop_path": "\/6OTRuxpwUUGbmCX3MKP25dOmo59.jpg",
        "adult": false,
        "overview": "Earth is peaceful following the Tournament of Power. Realizing that the universes still hold many more strong people yet to see, Goku spends all his days training to reach even greater heights. Then one day, Goku and Vegeta are faced by a Saiyan called 'Broly' who they've never seen before. The Saiyans were supposed to have been almost completely wiped out in the destruction of Planet Vegeta, so what's this one doing on Earth? This encounter between the three Saiyans who have followed completely different destinies turns into a stupendous battle, with even Frieza (back from Hell) getting caught up in the mix.",
        "release_date": "2018-12-14"
    }, {
        "vote_count": 29,
        "id": 567604,
        "video": false,
        "vote_average": 7.9,
        "title": "Once Upon a Deadpool",
        "popularity": 108.978,
        "poster_path": "\/5Ka49BWWyKMXr93YMbH5wLN7aAM.jpg",
        "original_language": "en",
        "original_title": "Once Upon a Deadpool",
        "genre_ids": [35, 28],
        "backdrop_path": "\/djah5gSgqzIbMj2SU0Ljj8Xo2pT.jpg",
        "adult": false,
        "overview": "A kidnapped Fred Savage is forced to endure Deadpool's PG-13 rendition of Deadpool 2 as a Princess Bride-esque story that's full of magic, wonder & zero F's.",
        "release_date": "2018-12-11"
    }, {
        "vote_count": 10642,
        "id": 299536,
        "video": false,
        "vote_average": 8.3,
        "title": "Avengers: Infinity War",
        "popularity": 106.677,
        "poster_path": "\/7WsyChQLEftFiDOVTGkv3hFpyyt.jpg",
        "original_language": "en",
        "original_title": "Avengers: Infinity War",
        "genre_ids": [12, 28, 14],
        "backdrop_path": "\/bOGkgRGdhrBYJSLpXaxhXVstddV.jpg",
        "adult": false,
        "overview": "As the Avengers and their allies have continued to protect the world from threats too large for any one hero to handle, a new danger has emerged from the cosmic shadows: Thanos. A despot of intergalactic infamy, his goal is to collect all six Infinity Stones, artifacts of unimaginable power, and use them to inflict his twisted will on all of reality. Everything the Avengers have fought for has led up to this moment - the fate of Earth and existence itself has never been more uncertain.",
        "release_date": "2018-04-25"
    }, {
        "vote_count": 479,
        "id": 428078,
        "video": false,
        "vote_average": 6.1,
        "title": "Mortal Engines",
        "popularity": 105.105,
        "poster_path": "\/uXJVpPXxZO4L8Rz3IG1Y8XvZJcg.jpg",
        "original_language": "en",
        "original_title": "Mortal Engines",
        "genre_ids": [878, 28, 12],
        "backdrop_path": "\/rxYG6Sj95as9rv9wKIHUx6ATWd3.jpg",
        "adult": false,
        "overview": "Set in a world many thousands of years in the future. Earth’s cities now roam the globe on huge wheels, devouring each other in a struggle for ever diminishing resources. On one of these massive Traction Cities, Tom Natsworthy has an unexpected encounter with a mysterious young woman from the Outlands who will change the course of his life forever.",
        "release_date": "2018-12-06"
    }, {
        "vote_count": 22,
        "id": 505954,
        "video": false,
        "vote_average": 4.7,
        "title": "T-34",
        "popularity": 98.879,
        "poster_path": "\/wNJF8R5QE6nBT7DQoKk8t6YD1MM.jpg",
        "original_language": "ru",
        "original_title": "Т-34",
        "genre_ids": [10752, 18, 12],
        "backdrop_path": "\/vDx8XxfYjkn573bCFGF6SkdM33Q.jpg",
        "adult": false,
        "overview": "1941 - WWii. the second lieutenant Nikolai ivushkin, commander of a t-34, engages in an unequal battle against the tank ace Klaus Jager in a battle near moscow. His mission is more of a suicide - to destroy a dozen german tanks, all by himself. that said, luck does favour the bold. He wins the battle, barely survives, but loses his tank and lands himself in captivity for three long years... there was little to no chance for ivushkin and Jager to meet again, but the war knows how to throw a curve ball.in the spring of 1944, the Wehrmacht commands Jager to take charge of the ohrdruf  re range and turn it into a training center for elite german armored forces, using the latest t-34 as a running target. this is how Jager and ivushkin cross paths again. Jager o ers ivushkin to become the commander of a legendary tank and pick his crew from fellow camp prisoners. Nothing goes according to plan, though, when ivushkin uses exercises for a daring and carefully planned escape.",
        "release_date": "2018-12-27"
    }, {
        "vote_count": 3,
        "id": 494113,
        "video": false,
        "vote_average": 8,
        "title": "Infected",
        "popularity": 97.581,
        "poster_path": "\/fX9N4ejnjX2T0pfxaMaMvChC6WL.jpg",
        "original_language": "no",
        "original_title": "Infisert",
        "genre_ids": [53, 27],
        "backdrop_path": "\/xNOppPb8HGXGORqTmCnTM1TlLjy.jpg",
        "adult": false,
        "overview": "In a post apocalyptic world, former drugstore employee Victoria Hansteen must look to her past in order to save the future of mankind after a virus has turned most of humanity into rabid killers.",
        "release_date": "2018-12-31"
    }, {
        "vote_count": 3374,
        "id": 424694,
        "video": false,
        "vote_average": 8.2,
        "title": "Bohemian Rhapsody",
        "popularity": 95.62,
        "poster_path": "\/lHu1wtNaczFPGFDTrjCSzeLPTKN.jpg",
        "original_language": "en",
        "original_title": "Bohemian Rhapsody",
        "genre_ids": [18, 10402],
        "backdrop_path": "\/pbXgLEYh8rlG2Km5IGZPnhcnuSz.jpg",
        "adult": false,
        "overview": "Singer Freddie Mercury, guitarist Brian May, drummer Roger Taylor and bass guitarist John Deacon take the music world by storm when they form the rock 'n' roll band Queen in 1970. Hit songs become instant classics. When Mercury's increasingly wild lifestyle starts to spiral out of control, Queen soon faces its greatest challenge yet – finding a way to keep the band together amid the success and excess.",
        "release_date": "2018-10-24"
    }, {
        "vote_count": 385,
        "id": 375588,
        "video": false,
        "vote_average": 5.9,
        "title": "Robin Hood",
        "popularity": 91.326,
        "poster_path": "\/AiRfixFcfTkNbn2A73qVJPlpkUo.jpg",
        "original_language": "en",
        "original_title": "Robin Hood",
        "genre_ids": [12, 28, 53],
        "backdrop_path": "\/AuA50D7T7S7OEVcGo0ZKaMhERn0.jpg",
        "adult": false,
        "overview": "A war-hardened Crusader and his Moorish commander mount an audacious revolt against the corrupt English crown.",
        "release_date": "2018-11-20"
    }, {
        "vote_count": 142,
        "id": 375262,
        "video": false,
        "vote_average": 7.7,
        "title": "The Favourite",
        "popularity": 84.605,
        "poster_path": "\/4hgPWxYeGWtTEx9BPhUo99wj77z.jpg",
        "original_language": "en",
        "original_title": "The Favourite",
        "genre_ids": [18, 36, 35],
        "backdrop_path": "\/ekWMoBZ4B9rM60INZEh5FAD2HFR.jpg",
        "adult": false,
        "overview": "In 18th century England, the close relationship between Queen Anne and Sarah Churchill is threatened by the arrival of Sarah's cousin, Abigail Hill, resulting in a bitter rivalry between the two cousins to be the Queen's favourite.",
        "release_date": "2018-11-20"
    }]
}